[gd_resource type="Resource" load_steps=4 format=2]

[ext_resource path="res://assets/icons/helicopter.svg" type="Texture" id=1]
[ext_resource path="res://units/helo/helo.tscn" type="PackedScene" id=2]
[ext_resource path="res://units/unit_data.gd" type="Script" id=3]

[resource]
script = ExtResource( 3 )
name = "HELO"
description = ""
icon = ExtResource( 1 )
scene = ExtResource( 2 )
cost = 2
health = 100
shield = 100
heat = 100
