<?xml version="1.0" encoding="UTF-8" standalone="no"?>
<!-- Created with Inkscape (http://www.inkscape.org/) -->

<svg
   xmlns:dc="http://purl.org/dc/elements/1.1/"
   xmlns:cc="http://creativecommons.org/ns#"
   xmlns:rdf="http://www.w3.org/1999/02/22-rdf-syntax-ns#"
   xmlns:svg="http://www.w3.org/2000/svg"
   xmlns="http://www.w3.org/2000/svg"
   xmlns:sodipodi="http://sodipodi.sourceforge.net/DTD/sodipodi-0.dtd"
   xmlns:inkscape="http://www.inkscape.org/namespaces/inkscape"
   width="226"
   height="32"
   viewBox="0 0 59.795833 8.466666"
   version="1.1"
   id="svg8"
   inkscape:version="0.92.4 5da689c313, 2019-01-14"
   sodipodi:docname="health_progress.svg">
  <defs
     id="defs2" />
  <sodipodi:namedview
     id="base"
     pagecolor="#ffffff"
     bordercolor="#666666"
     borderopacity="1.0"
     inkscape:pageopacity="0.0"
     inkscape:pageshadow="2"
     inkscape:zoom="3.9277835"
     inkscape:cx="95.766987"
     inkscape:cy="-6.1303663"
     inkscape:document-units="px"
     inkscape:current-layer="layer1"
     showgrid="true"
     units="px"
     inkscape:pagecheckerboard="true"
     inkscape:window-width="1918"
     inkscape:window-height="1059"
     inkscape:window-x="0"
     inkscape:window-y="19"
     inkscape:window-maximized="0"
     inkscape:snap-global="false">
    <inkscape:grid
       type="xygrid"
       id="grid6171" />
  </sodipodi:namedview>
  <metadata
     id="metadata5">
    <rdf:RDF>
      <cc:Work
         rdf:about="">
        <dc:format>image/svg+xml</dc:format>
        <dc:type
           rdf:resource="http://purl.org/dc/dcmitype/StillImage" />
        <dc:title></dc:title>
      </cc:Work>
    </rdf:RDF>
  </metadata>
  <g
     inkscape:label="HealthProgress"
     inkscape:groupmode="layer"
     id="layer1"
     transform="translate(0,-288.53334)"
     style="display:inline">
    <path
       style="fill:#ffffff;stroke:none;stroke-width:0.32488933px;stroke-linecap:butt;stroke-linejoin:miter;stroke-opacity:1"
       d="m 0.13229166,295.94167 2.12767984,-3.175 H 57.579638 l 2.12768,3.175 z"
       id="path816"
       inkscape:connector-curvature="0"
       sodipodi:nodetypes="ccccc" />
  </g>
  <g
     inkscape:groupmode="layer"
     id="layer2"
     inkscape:label="ShieldProgress"
     style="display:none">
    <path
       style="display:inline;fill:#ffffff;stroke:none;stroke-width:0.46711633px;stroke-linecap:butt;stroke-linejoin:miter;stroke-opacity:1"
       d="m 4.5467714,1.0583333 -4.42746417,6.471956 2.42317267,3e-7 3.0902135,-4.3552898 H 62.100636 l 3.018098,4.3707808 2.495289,-0.015492 -4.427464,-6.471956 z"
       id="path845"
       inkscape:connector-curvature="0"
       sodipodi:nodetypes="ccccccccc" />
  </g>
</svg>
