[gd_scene load_steps=7 format=2]

[ext_resource path="res://assets/materials/neutral/dim.tres" type="Material" id=1]
[ext_resource path="res://gui/ToolTip3D.tscn" type="PackedScene" id=2]
[ext_resource path="res://common/gravity.gd" type="Script" id=3]

[sub_resource type="Animation" id=1]
resource_name = "Idle"
length = 3.0
loop = true
tracks/0/type = "value"
tracks/0/path = NodePath("Meshes:rotation_degrees")
tracks/0/interp = 1
tracks/0/loop_wrap = true
tracks/0/imported = false
tracks/0/enabled = true
tracks/0/keys = {
"times": PoolRealArray( 0, 3 ),
"transitions": PoolRealArray( 1, 1 ),
"update": 0,
"values": [ Vector3( 0, 0, 0 ), Vector3( 0, 360, 0 ) ]
}

[sub_resource type="PrismMesh" id=2]
material = ExtResource( 1 )
size = Vector3( 2, 1.39, 0.93 )

[sub_resource type="BoxShape" id=3]
extents = Vector3( 0.633772, 1.52897, 0.686489 )

[node name="Token" type="KinematicBody" groups=[
"token",
]]
collision_layer = 41
collision_mask = 0

[node name="AnimationPlayer" type="AnimationPlayer" parent="."]
autoplay = "Idle"
anims/Idle = SubResource( 1 )

[node name="Meshes" type="Spatial" parent="."]
transform = Transform( 0.871979, 0, -0.489543, 0, 1, 0, 0.489543, 0, 0.871979, 0, 0, 0 )

[node name="MeshInstance" type="MeshInstance" parent="Meshes"]
transform = Transform( 1, 0, 1.74846e-07, 0, 1, 0, -1.74846e-07, 0, 1, 0, 2.30493, 0 )
mesh = SubResource( 2 )
material/0 = null

[node name="MeshInstance2" type="MeshInstance" parent="Meshes"]
transform = Transform( 1, 0, 0, 0, -1, 1.50996e-07, 0, -1.50996e-07, -1, 0, 0.918783, -2.09302e-07 )
mesh = SubResource( 2 )
material/0 = null

[node name="CollisionShape" type="CollisionShape" parent="."]
transform = Transform( 1, 0, 0, 0, 1, 0, 0, 0, 1, 0, 1.569, 0 )
shape = SubResource( 3 )

[node name="ToolTip3D" parent="." instance=ExtResource( 2 )]
transform = Transform( 1, 0, 0, 0, 1, 0, 0, 0, 1, 0, 5, 0 )
message = "Grab"
layers = 8

[node name="Gravity" type="Node" parent="."]
script = ExtResource( 3 )
