[gd_scene load_steps=13 format=2]

[ext_resource path="res://buildings/repair_pad/repair_pad.escn" type="PackedScene" id=1]
[ext_resource path="res://assets/materials/blue/dim.tres" type="Material" id=2]
[ext_resource path="res://common/mesh.gd" type="Script" id=3]
[ext_resource path="res://assets/materials/blue/bright.tres" type="Material" id=4]
[ext_resource path="res://buildings/repair_pad/repair_pad.gd" type="Script" id=5]
[ext_resource path="res://gui/ToolTip3D.tscn" type="PackedScene" id=6]





[sub_resource type="ConvexPolygonShape" id=1]
points = PoolVector3Array( 7.4, 1, -7.4, 0, 0, -8.14, 0, 1, -7.4, 7.4, 1, -7.4, 7.4, 0, -7.4, 7.4, 0, -8.14, 7.4, 0, 7.4, 7.4, 1, 7.4, 7.4, 0, 8.14, 0, 0, -7.4, 7.4, 0, -8.14, 7.4, 0, -7.4, 0, 1, -7.4, 7.4, 1, 7.4, 7.4, 1, -7.4, 7.4, 0, 7.4, 0, 0, 8.14, 0, 0, 7.4, 7.4, 0, -7.4, 8.4, 0, 7.4, 7.4, 0, 7.4, 0, 1, 7.4, 7.4, 0, 8.14, 7.4, 1, 7.4, 7.4, 1, 7.4, 8.4, 0, -7.4, 7.4, 1, -7.4, 7.4, 1, 7.4, 7.4, 0, 7.4, 8.4, 0, 7.4, 0, 0, 7.4, 0, 0, -7.4, 7.4, 0, -7.4, 7.4, 1, -7.4, 8.4, 0, -7.4, -7.4, 1, -7.4, 0, 1, 7.4, 0, 0, 8.14, 0, 0, 7.4, -7.4, 1, -7.4, -7.4, 0, -8.14, -7.4, 0, -7.4, -7.4, 0, 7.4, -7.4, 0, 8.14, -7.4, 1, 7.4, 0, 0, -7.4, 0, 0, -8.14, 0, 1, -7.4, -7.4, 0, -8.14, -7.4, 0, -7.4, -7.4, 1, 7.4, 0, 1, -7.4, -7.4, 1, -7.4, -7.4, 0, 7.4, -8.4, 0, 7.4, -7.4, 0, -7.4, -7.4, 0, 7.4, -7.4, 0, 8.14, -7.4, 1, 7.4, -8.4, 0, -7.4, -7.4, 1, 7.4, -7.4, 1, -7.4, -7.4, 1, 7.4, -8.4, 0, 7.4, -7.4, 0, 7.4, 0, 0, 7.4, 0, 0, -7.4, -7.4, 0, -7.4, -8.4, 0, -7.4, -7.4, 1, -7.4, 7.4, 1, -7.4, 7.4, 0, -8.14, 0, 0, -8.14, 0, 0, -8.14, 0, 1, 7.4, 7.4, 0, 8.14, 8.4, 0, -7.4, 0, 1, 7.4, 0, 0, 8.14, 7.4, 0, 8.14, 8.4, 0, 7.4, -7.4, 0, -8.14, -7.4, 1, -7.4, 0, 1, 7.4, -7.4, 0, 8.14, -8.4, 0, -7.4, -7.4, 0, 8.14, -8.4, 0, 7.4, 7.35, 0.959808, -7.42974, 0.0110721, 0.956461, -7.37806, 0.05, 0.959808, -7.42974, 0.05, 0.959808, -7.42974, 7.41938, 1.0401, -7.42271, 7.35, 0.959808, -7.42974, 7.35, 0.0401921, -8.11026, 7.38062, 0.959897, -7.37729, 7.35, 0.959808, -7.42974, 7.35, 0.959808, -7.42974, 7.42755, -0.018778, -8.17726, 7.35, 0.0401921, -8.11026, 0.05, 0.0401921, -8.11026, 7.37245, 0.018778, -8.10274, 7.35, 0.0401921, -8.11026, 7.35, 0.0401921, -8.11026, -0.0275521, -0.018778, -8.17726, 0.05, 0.0401921, -8.11026, 0.05, 0.959808, -7.42974, 0.0275521, 0.018778, -8.10274, 0.05, 0.0401921, -8.11026, 0.05, 0.0401921, -8.11026, -0.0110721, 1.04354, -7.42194, 0.05, 0.959808, -7.42974, 0, 0.05, 7.45, 0.0110721, 0.956461, 7.37806, 0, 0.848377, 7.45, 0, 0.848377, 7.45, -0.0223594, -0.0447203, 7.4, 0, 0.05, 7.45, 0, 0.05, 8.0408, 0.0223594, 0.0447203, 7.4, 0, 0.05, 7.45, 0, 0.05, 7.45, -0.0275521, -0.018778, 8.17726, 0, 0.05, 8.0408, 0, 0.848377, 7.45, 0.0275521, 0.018778, 8.10274, 0, 0.05, 8.0408, 0, 0.05, 8.0408, -0.0110721, 1.04354, 7.42194, 0, 0.848377, 7.45, 7.4, 0.05, -7.45, 7.38062, 0.959897, -7.37729, 7.4, 0.848377, -7.45, 7.4, 0.848377, -7.45, 7.41507, -0.0452254, -7.41507, 7.4, 0.05, -7.45, 7.4, 0.05, -8.0408, 7.38493, 0.0452254, -7.38493, 7.4, 0.05, -7.45, 7.4, 0.05, -7.45, 7.42755, -0.018778, -8.17726, 7.4, 0.05, -8.0408, 7.4, 0.848377, -7.45, 7.37245, 0.018778, -8.10274, 7.4, 0.05, -8.0408, 7.4, 0.05, -8.0408, 7.41938, 1.0401, -7.42271, 7.4, 0.848377, -7.45, 7.4, 0.848377, 7.45, 7.38493, 0.0452254, 7.38493, 7.4, 0.05, 7.45, 7.4, 0.05, 7.45, 7.41938, 1.0401, 7.42271, 7.4, 0.848377, 7.45, 7.4, 0.05, 8.0408, 7.38062, 0.959897, 7.37729, 7.4, 0.848377, 7.45, 7.4, 0.848377, 7.45, 7.42755, -0.018778, 8.17726, 7.4, 0.05, 8.0408, 7.4, 0.05, 7.45, 7.37245, 0.018778, 8.10274, 7.4, 0.05, 8.0408, 7.4, 0.05, 8.0408, 7.41507, -0.0452254, 7.41507, 7.4, 0.05, 7.45, 0, 0.848377, -7.45, 0.0223594, 0.0447203, -7.4, 0, 0.05, -7.45, 0, 0.05, -7.45, -0.0110721, 1.04354, -7.42194, 0, 0.848377, -7.45, 0, 0.05, -8.0408, 0.0110721, 0.956461, -7.37806, 0, 0.848377, -7.45, 0, 0.848377, -7.45, -0.0275521, -0.018778, -8.17726, 0, 0.05, -8.0408, 0, 0.05, -7.45, 0.0275521, 0.018778, -8.10274, 0, 0.05, -8.0408, 0, 0.05, -8.0408, -0.0223594, -0.0447203, -7.4, 0, 0.05, -7.45, 0.05, 0, -7.45, 7.38493, 0.0452254, -7.38493, 7.35, 0, -7.45, 7.35, 0, -7.45, -0.0223594, -0.0447203, -7.4, 0.05, 0, -7.45, 0.05, 0, -8.09, 0.0223594, 0.0447203, -7.4, 0.05, 0, -7.45, 0.05, 0, -7.45, -0.0275521, -0.018778, -8.17726, 0.05, 0, -8.09, 7.35, 0, -8.09, 0.0275521, 0.018778, -8.10274, 0.05, 0, -8.09, 0.05, 0, -8.09, 7.42755, -0.018778, -8.17726, 7.35, 0, -8.09, 7.35, 0, -7.45, 7.37245, 0.018778, -8.10274, 7.35, 0, -8.09, 7.35, 0, -8.09, 7.41507, -0.0452254, -7.41507, 7.35, 0, -7.45, 0.05, 1, -7.35, 7.38062, 0.959897, -7.37729, 7.35, 1, -7.35, 7.35, 1, -7.35, -0.0110721, 1.04354, -7.42194, 0.05, 1, -7.35, 0.05, 1, 7.35, 0.0110721, 0.956461, -7.37806, 0.05, 1, -7.35, 0.05, 1, -7.35, -0.0110721, 1.04354, 7.42194, 0.05, 1, 7.35, 7.35, 1, 7.35, 0.0110721, 0.956461, 7.37806, 0.05, 1, 7.35, 0.05, 1, 7.35, 7.41938, 1.0401, 7.42271, 7.35, 1, 7.35, 7.35, 1, -7.35, 7.38062, 0.959897, 7.37729, 7.35, 1, 7.35, 7.35, 1, 7.35, 7.41938, 1.0401, -7.42271, 7.35, 1, -7.35, 7.35, 0, 7.45, 0.0223594, 0.0447203, 7.4, 0.05, 0, 7.45, 0.05, 0, 7.45, 7.41507, -0.0452254, 7.41507, 7.35, 0, 7.45, 7.35, 0, 8.09, 7.38493, 0.0452254, 7.38493, 7.35, 0, 7.45, 7.35, 0, 7.45, 7.42755, -0.018778, 8.17726, 7.35, 0, 8.09, 0.05, 0, 8.09, 7.37245, 0.018778, 8.10274, 7.35, 0, 8.09, 7.35, 0, 8.09, -0.0275521, -0.018778, 8.17726, 0.05, 0, 8.09, 0.05, 0, 7.45, 0.0275521, 0.018778, 8.10274, 0.05, 0, 8.09, 0.05, 0, 8.09, -0.0223594, -0.0447203, 7.4, 0.05, 0, 7.45, 7.45, 0, -7.35, 7.38493, 0.0452254, 7.38493, 7.45, 0, 7.35, 7.45, 0, 7.35, 7.41507, -0.0452254, -7.41507, 7.45, 0, -7.35, 8.35, 0, -7.35, 7.38493, 0.0452254, -7.38493, 7.45, 0, -7.35, 7.45, 0, -7.35, 8.43867, -0.0160176, -7.42734, 8.35, 0, -7.35, 8.35, 0, 7.35, 8.36133, 0.0160176, -7.37266, 8.35, 0, -7.35, 8.35, 0, -7.35, 8.43867, -0.0160176, 7.42734, 8.35, 0, 7.35, 7.45, 0, 7.35, 8.36133, 0.0160176, 7.37266, 8.35, 0, 7.35, 8.35, 0, 7.35, 7.41507, -0.0452254, 7.41507, 7.45, 0, 7.35, 0.05, 0.959808, 7.42974, 7.38062, 0.959897, 7.37729, 7.35, 0.959808, 7.42974, 7.35, 0.959808, 7.42974, -0.0110721, 1.04354, 7.42194, 0.05, 0.959808, 7.42974, 0.05, 0.0401921, 8.11026, 0.0110721, 0.956461, 7.37806, 0.05, 0.959808, 7.42974, 0.05, 0.959808, 7.42974, -0.0275521, -0.018778, 8.17726, 0.05, 0.0401921, 8.11026, 7.35, 0.0401921, 8.11026, 0.0275521, 0.018778, 8.10274, 0.05, 0.0401921, 8.11026, 0.05, 0.0401921, 8.11026, 7.42755, -0.018778, 8.17726, 7.35, 0.0401921, 8.11026, 7.35, 0.959808, 7.42974, 7.37245, 0.018778, 8.10274, 7.35, 0.0401921, 8.11026, 7.35, 0.0401921, 8.11026, 7.41938, 1.0401, 7.42271, 7.35, 0.959808, 7.42974, 7.43536, 0.964645, 7.35, 7.38062, 0.959897, -7.37729, 7.43536, 0.964645, -7.35, 7.43536, 0.964645, -7.35, 7.41938, 1.0401, 7.42271, 7.43536, 0.964645, 7.35, 8.36464, 0.0353553, 7.35, 7.38062, 0.959897, 7.37729, 7.43536, 0.964645, 7.35, 7.43536, 0.964645, 7.35, 8.43867, -0.0160176, 7.42734, 8.36464, 0.0353553, 7.35, 8.36464, 0.0353553, -7.35, 8.36133, 0.0160176, 7.37266, 8.36464, 0.0353553, 7.35, 8.36464, 0.0353553, 7.35, 8.43867, -0.0160176, -7.42734, 8.36464, 0.0353553, -7.35, 7.43536, 0.964645, -7.35, 8.36133, 0.0160176, -7.37266, 8.36464, 0.0353553, -7.35, 8.36464, 0.0353553, -7.35, 7.41938, 1.0401, -7.42271, 7.43536, 0.964645, -7.35, 7.45, 0.05, 7.4, 7.38062, 0.959897, 7.37729, 7.45, 0.879289, 7.4, 7.45, 0.879289, 7.4, 7.41507, -0.0452254, 7.41507, 7.45, 0.05, 7.4, 8.27929, 0.05, 7.4, 7.38493, 0.0452254, 7.38493, 7.45, 0.05, 7.4, 7.45, 0.05, 7.4, 8.43867, -0.0160176, 7.42734, 8.27929, 0.05, 7.4, 7.45, 0.879289, 7.4, 8.36133, 0.0160176, 7.37266, 8.27929, 0.05, 7.4, 8.27929, 0.05, 7.4, 7.41938, 1.0401, 7.42271, 7.45, 0.879289, 7.4, 7.35, 0, -7.35, 0.0223594, 0.0447203, -7.4, 0.05, 0, -7.35, 0.05, 0, -7.35, 7.41507, -0.0452254, -7.41507, 7.35, 0, -7.35, 7.35, 0, 7.35, 7.38493, 0.0452254, -7.38493, 7.35, 0, -7.35, 7.35, 0, -7.35, 7.41507, -0.0452254, 7.41507, 7.35, 0, 7.35, 0.05, 0, 7.35, 7.38493, 0.0452254, 7.38493, 7.35, 0, 7.35, 7.35, 0, 7.35, -0.0223594, -0.0447203, 7.4, 0.05, 0, 7.35, 0.05, 0, -7.35, 0.0223594, 0.0447203, 7.4, 0.05, 0, 7.35, 0.05, 0, 7.35, -0.0223594, -0.0447203, -7.4, 0.05, 0, -7.35, 7.45, 0.879289, -7.4, 7.38493, 0.0452254, -7.38493, 7.45, 0.05, -7.4, 7.45, 0.05, -7.4, 7.41938, 1.0401, -7.42271, 7.45, 0.879289, -7.4, 8.27929, 0.05, -7.4, 7.38062, 0.959897, -7.37729, 7.45, 0.879289, -7.4, 7.45, 0.879289, -7.4, 8.43867, -0.0160176, -7.42734, 8.27929, 0.05, -7.4, 7.45, 0.05, -7.4, 8.36133, 0.0160176, -7.37266, 8.27929, 0.05, -7.4, 8.27929, 0.05, -7.4, 7.41507, -0.0452254, -7.41507, 7.45, 0.05, -7.4, -0.0110721, 0.956461, -7.37806, -7.35, 0.959808, -7.42974, -0.05, 0.959808, -7.42974, -7.41938, 1.0401, -7.42271, -0.05, 0.959808, -7.42974, -7.35, 0.959808, -7.42974, -7.38062, 0.959897, -7.37729, -7.35, 0.0401921, -8.11026, -7.35, 0.959808, -7.42974, -7.42755, -0.018778, -8.17726, -7.35, 0.959808, -7.42974, -7.35, 0.0401921, -8.11026, -7.37245, 0.018778, -8.10274, -0.05, 0.0401921, -8.11026, -7.35, 0.0401921, -8.11026, 0.0275521, -0.018778, -8.17726, -7.35, 0.0401921, -8.11026, -0.05, 0.0401921, -8.11026, -0.0275521, 0.018778, -8.10274, -0.05, 0.959808, -7.42974, -0.05, 0.0401921, -8.11026, 0.0110721, 1.04354, -7.42194, -0.05, 0.0401921, -8.11026, -0.05, 0.959808, -7.42974, -0.0110721, 0.956461, 7.37806, 0, 0.05, 7.45, 0, 0.848377, 7.45, 0.0223594, -0.0447203, 7.4, 0, 0.848377, 7.45, 0, 0.05, 7.45, -0.0223594, 0.0447203, 7.4, 0, 0.05, 8.0408, 0, 0.05, 7.45, 0.0275521, -0.018778, 8.17726, 0, 0.05, 7.45, 0, 0.05, 8.0408, -0.0275521, 0.018778, 8.10274, 0, 0.848377, 7.45, 0, 0.05, 8.0408, 0.0110721, 1.04354, 7.42194, 0, 0.05, 8.0408, 0, 0.848377, 7.45, -7.38062, 0.959897, -7.37729, -7.4, 0.05, -7.45, -7.4, 0.848377, -7.45, -7.41507, -0.0452254, -7.41507, -7.4, 0.848377, -7.45, -7.4, 0.05, -7.45, -7.38493, 0.0452254, -7.38493, -7.4, 0.05, -8.0408, -7.4, 0.05, -7.45, -7.42755, -0.018778, -8.17726, -7.4, 0.05, -7.45, -7.4, 0.05, -8.0408, -7.37245, 0.018778, -8.10274, -7.4, 0.848377, -7.45, -7.4, 0.05, -8.0408, -7.41938, 1.0401, -7.42271, -7.4, 0.05, -8.0408, -7.4, 0.848377, -7.45, -7.38493, 0.0452254, 7.38493, -7.4, 0.848377, 7.45, -7.4, 0.05, 7.45, -7.41938, 1.0401, 7.42271, -7.4, 0.05, 7.45, -7.4, 0.848377, 7.45, -7.38062, 0.959897, 7.37729, -7.4, 0.05, 8.0408, -7.4, 0.848377, 7.45, -7.42755, -0.018778, 8.17726, -7.4, 0.848377, 7.45, -7.4, 0.05, 8.0408, -7.37245, 0.018778, 8.10274, -7.4, 0.05, 7.45, -7.4, 0.05, 8.0408, -7.41507, -0.0452254, 7.41507, -7.4, 0.05, 8.0408, -7.4, 0.05, 7.45, -0.0223594, 0.0447203, -7.4, 0, 0.848377, -7.45, 0, 0.05, -7.45, 0.0110721, 1.04354, -7.42194, 0, 0.05, -7.45, 0, 0.848377, -7.45, -0.0110721, 0.956461, -7.37806, 0, 0.05, -8.0408, 0, 0.848377, -7.45, 0.0275521, -0.018778, -8.17726, 0, 0.848377, -7.45, 0, 0.05, -8.0408, -0.0275521, 0.018778, -8.10274, 0, 0.05, -7.45, 0, 0.05, -8.0408, 0.0223594, -0.0447203, -7.4, 0, 0.05, -8.0408, 0, 0.05, -7.45, -7.38493, 0.0452254, -7.38493, -0.05, 0, -7.45, -7.35, 0, -7.45, 0.0223594, -0.0447203, -7.4, -7.35, 0, -7.45, -0.05, 0, -7.45, -0.0223594, 0.0447203, -7.4, -0.05, 0, -8.09, -0.05, 0, -7.45, 0.0275521, -0.018778, -8.17726, -0.05, 0, -7.45, -0.05, 0, -8.09, -0.0275521, 0.018778, -8.10274, -7.35, 0, -8.09, -0.05, 0, -8.09, -7.42755, -0.018778, -8.17726, -0.05, 0, -8.09, -7.35, 0, -8.09, -7.37245, 0.018778, -8.10274, -7.35, 0, -7.45, -7.35, 0, -8.09, -7.41507, -0.0452254, -7.41507, -7.35, 0, -8.09, -7.35, 0, -7.45, -7.38062, 0.959897, -7.37729, -0.05, 1, -7.35, -7.35, 1, -7.35, 0.0110721, 1.04354, -7.42194, -7.35, 1, -7.35, -0.05, 1, -7.35, -0.0110721, 0.956461, -7.37806, -0.05, 1, 7.35, -0.05, 1, -7.35, 0.0110721, 1.04354, 7.42194, -0.05, 1, -7.35, -0.05, 1, 7.35, -0.0110721, 0.956461, 7.37806, -7.35, 1, 7.35, -0.05, 1, 7.35, -7.41938, 1.0401, 7.42271, -0.05, 1, 7.35, -7.35, 1, 7.35, -7.38062, 0.959897, 7.37729, -7.35, 1, -7.35, -7.35, 1, 7.35, -7.41938, 1.0401, -7.42271, -7.35, 1, 7.35, -7.35, 1, -7.35, -0.0223594, 0.0447203, 7.4, -7.35, 0, 7.45, -0.05, 0, 7.45, -7.41507, -0.0452254, 7.41507, -0.05, 0, 7.45, -7.35, 0, 7.45, -7.38493, 0.0452254, 7.38493, -7.35, 0, 8.09, -7.35, 0, 7.45, -7.42755, -0.018778, 8.17726, -7.35, 0, 7.45, -7.35, 0, 8.09, -7.37245, 0.018778, 8.10274, -0.05, 0, 8.09, -7.35, 0, 8.09, 0.0275521, -0.018778, 8.17726, -7.35, 0, 8.09, -0.05, 0, 8.09, -0.0275521, 0.018778, 8.10274, -0.05, 0, 7.45, -0.05, 0, 8.09, 0.0223594, -0.0447203, 7.4, -0.05, 0, 8.09, -0.05, 0, 7.45, -7.38493, 0.0452254, 7.38493, -7.45, 0, -7.35, -7.45, 0, 7.35, -7.41507, -0.0452254, -7.41507, -7.45, 0, 7.35, -7.45, 0, -7.35, -7.38493, 0.0452254, -7.38493, -8.35, 0, -7.35, -7.45, 0, -7.35, -8.43867, -0.0160176, -7.42734, -7.45, 0, -7.35, -8.35, 0, -7.35, -8.36133, 0.0160176, -7.37266, -8.35, 0, 7.35, -8.35, 0, -7.35, -8.43867, -0.0160176, 7.42734, -8.35, 0, -7.35, -8.35, 0, 7.35, -8.36133, 0.0160176, 7.37266, -7.45, 0, 7.35, -8.35, 0, 7.35, -7.41507, -0.0452254, 7.41507, -8.35, 0, 7.35, -7.45, 0, 7.35, -7.38062, 0.959897, 7.37729, -0.05, 0.959808, 7.42974, -7.35, 0.959808, 7.42974, 0.0110721, 1.04354, 7.42194, -7.35, 0.959808, 7.42974, -0.05, 0.959808, 7.42974, -0.0110721, 0.956461, 7.37806, -0.05, 0.0401921, 8.11026, -0.05, 0.959808, 7.42974, 0.0275521, -0.018778, 8.17726, -0.05, 0.959808, 7.42974, -0.05, 0.0401921, 8.11026, -0.0275521, 0.018778, 8.10274, -7.35, 0.0401921, 8.11026, -0.05, 0.0401921, 8.11026, -7.42755, -0.018778, 8.17726, -0.05, 0.0401921, 8.11026, -7.35, 0.0401921, 8.11026, -7.37245, 0.018778, 8.10274, -7.35, 0.959808, 7.42974, -7.35, 0.0401921, 8.11026, -7.41938, 1.0401, 7.42271, -7.35, 0.0401921, 8.11026, -7.35, 0.959808, 7.42974, -7.38062, 0.959897, -7.37729, -7.43536, 0.964645, 7.35, -7.43536, 0.964645, -7.35, -7.41938, 1.0401, 7.42271, -7.43536, 0.964645, -7.35, -7.43536, 0.964645, 7.35, -7.38062, 0.959897, 7.37729, -8.36464, 0.0353553, 7.35, -7.43536, 0.964645, 7.35, -8.43867, -0.0160176, 7.42734, -7.43536, 0.964645, 7.35, -8.36464, 0.0353553, 7.35, -8.36133, 0.0160176, 7.37266, -8.36464, 0.0353553, -7.35, -8.36464, 0.0353553, 7.35, -8.43867, -0.0160176, -7.42734, -8.36464, 0.0353553, 7.35, -8.36464, 0.0353553, -7.35, -8.36133, 0.0160176, -7.37266, -7.43536, 0.964645, -7.35, -8.36464, 0.0353553, -7.35, -7.41938, 1.0401, -7.42271, -8.36464, 0.0353553, -7.35, -7.43536, 0.964645, -7.35, -7.38062, 0.959897, 7.37729, -7.45, 0.05, 7.4, -7.45, 0.879289, 7.4, -7.41507, -0.0452254, 7.41507, -7.45, 0.879289, 7.4, -7.45, 0.05, 7.4, -7.38493, 0.0452254, 7.38493, -8.27929, 0.05, 7.4, -7.45, 0.05, 7.4, -8.43867, -0.0160176, 7.42734, -7.45, 0.05, 7.4, -8.27929, 0.05, 7.4, -8.36133, 0.0160176, 7.37266, -7.45, 0.879289, 7.4, -8.27929, 0.05, 7.4, -7.41938, 1.0401, 7.42271, -8.27929, 0.05, 7.4, -7.45, 0.879289, 7.4, -0.0223594, 0.0447203, -7.4, -7.35, 0, -7.35, -0.05, 0, -7.35, -7.41507, -0.0452254, -7.41507, -0.05, 0, -7.35, -7.35, 0, -7.35, -7.38493, 0.0452254, -7.38493, -7.35, 0, 7.35, -7.35, 0, -7.35, -7.41507, -0.0452254, 7.41507, -7.35, 0, -7.35, -7.35, 0, 7.35, -7.38493, 0.0452254, 7.38493, -0.05, 0, 7.35, -7.35, 0, 7.35, 0.0223594, -0.0447203, 7.4, -7.35, 0, 7.35, -0.05, 0, 7.35, -0.0223594, 0.0447203, 7.4, -0.05, 0, -7.35, -0.05, 0, 7.35, 0.0223594, -0.0447203, -7.4, -0.05, 0, 7.35, -0.05, 0, -7.35, -7.38493, 0.0452254, -7.38493, -7.45, 0.879289, -7.4, -7.45, 0.05, -7.4, -7.41938, 1.0401, -7.42271, -7.45, 0.05, -7.4, -7.45, 0.879289, -7.4, -7.38062, 0.959897, -7.37729, -8.27929, 0.05, -7.4, -7.45, 0.879289, -7.4, -8.43867, -0.0160176, -7.42734, -7.45, 0.879289, -7.4, -8.27929, 0.05, -7.4, -8.36133, 0.0160176, -7.37266, -7.45, 0.05, -7.4, -8.27929, 0.05, -7.4, -7.41507, -0.0452254, -7.41507, -8.27929, 0.05, -7.4, -7.45, 0.05, -7.4, 7.35, 0.959808, -7.42974, 7.38062, 0.959897, -7.37729, 0.0110721, 0.956461, -7.37806, 0.05, 0.959808, -7.42974, -0.0110721, 1.04354, -7.42194, 7.41938, 1.0401, -7.42271, 7.35, 0.0401921, -8.11026, 7.37245, 0.018778, -8.10274, 7.38062, 0.959897, -7.37729, 7.35, 0.959808, -7.42974, 7.41938, 1.0401, -7.42271, 7.42755, -0.018778, -8.17726, 0.05, 0.0401921, -8.11026, 0.0275521, 0.018778, -8.10274, 7.37245, 0.018778, -8.10274, 7.35, 0.0401921, -8.11026, 7.42755, -0.018778, -8.17726, -0.0275521, -0.018778, -8.17726, 0.05, 0.959808, -7.42974, 0.0110721, 0.956461, -7.37806, 0.0275521, 0.018778, -8.10274, 0.05, 0.0401921, -8.11026, -0.0275521, -0.018778, -8.17726, -0.0110721, 1.04354, -7.42194, 0, 0.05, 7.45, 0.0223594, 0.0447203, 7.4, 0.0110721, 0.956461, 7.37806, 0, 0.848377, 7.45, -0.0110721, 1.04354, 7.42194, -0.0223594, -0.0447203, 7.4, 0, 0.05, 8.0408, 0.0275521, 0.018778, 8.10274, 0.0223594, 0.0447203, 7.4, 0, 0.05, 7.45, -0.0223594, -0.0447203, 7.4, -0.0275521, -0.018778, 8.17726, 0, 0.848377, 7.45, 0.0110721, 0.956461, 7.37806, 0.0275521, 0.018778, 8.10274, 0, 0.05, 8.0408, -0.0275521, -0.018778, 8.17726, -0.0110721, 1.04354, 7.42194, 7.4, 0.05, -7.45, 7.38493, 0.0452254, -7.38493, 7.38062, 0.959897, -7.37729, 7.4, 0.848377, -7.45, 7.41938, 1.0401, -7.42271, 7.41507, -0.0452254, -7.41507, 7.4, 0.05, -8.0408, 7.37245, 0.018778, -8.10274, 7.38493, 0.0452254, -7.38493, 7.4, 0.05, -7.45, 7.41507, -0.0452254, -7.41507, 7.42755, -0.018778, -8.17726, 7.4, 0.848377, -7.45, 7.38062, 0.959897, -7.37729, 7.37245, 0.018778, -8.10274, 7.4, 0.05, -8.0408, 7.42755, -0.018778, -8.17726, 7.41938, 1.0401, -7.42271, 7.4, 0.848377, 7.45, 7.38062, 0.959897, 7.37729, 7.38493, 0.0452254, 7.38493, 7.4, 0.05, 7.45, 7.41507, -0.0452254, 7.41507, 7.41938, 1.0401, 7.42271, 7.4, 0.05, 8.0408, 7.37245, 0.018778, 8.10274, 7.38062, 0.959897, 7.37729, 7.4, 0.848377, 7.45, 7.41938, 1.0401, 7.42271, 7.42755, -0.018778, 8.17726, 7.4, 0.05, 7.45, 7.38493, 0.0452254, 7.38493, 7.37245, 0.018778, 8.10274, 7.4, 0.05, 8.0408, 7.42755, -0.018778, 8.17726, 7.41507, -0.0452254, 7.41507, 0, 0.848377, -7.45, 0.0110721, 0.956461, -7.37806, 0.0223594, 0.0447203, -7.4, 0, 0.05, -7.45, -0.0223594, -0.0447203, -7.4, -0.0110721, 1.04354, -7.42194, 0, 0.05, -8.0408, 0.0275521, 0.018778, -8.10274, 0.0110721, 0.956461, -7.37806, 0, 0.848377, -7.45, -0.0110721, 1.04354, -7.42194, -0.0275521, -0.018778, -8.17726, 0, 0.05, -7.45, 0.0223594, 0.0447203, -7.4, 0.0275521, 0.018778, -8.10274, 0, 0.05, -8.0408, -0.0275521, -0.018778, -8.17726, -0.0223594, -0.0447203, -7.4, 0.05, 0, -7.45, 0.0223594, 0.0447203, -7.4, 7.38493, 0.0452254, -7.38493, 7.35, 0, -7.45, 7.41507, -0.0452254, -7.41507, -0.0223594, -0.0447203, -7.4, 0.05, 0, -8.09, 0.0275521, 0.018778, -8.10274, 0.0223594, 0.0447203, -7.4, 0.05, 0, -7.45, -0.0223594, -0.0447203, -7.4, -0.0275521, -0.018778, -8.17726, 7.35, 0, -8.09, 7.37245, 0.018778, -8.10274, 0.0275521, 0.018778, -8.10274, 0.05, 0, -8.09, -0.0275521, -0.018778, -8.17726, 7.42755, -0.018778, -8.17726, 7.35, 0, -7.45, 7.38493, 0.0452254, -7.38493, 7.37245, 0.018778, -8.10274, 7.35, 0, -8.09, 7.42755, -0.018778, -8.17726, 7.41507, -0.0452254, -7.41507, 0.05, 1, -7.35, 0.0110721, 0.956461, -7.37806, 7.38062, 0.959897, -7.37729, 7.35, 1, -7.35, 7.41938, 1.0401, -7.42271, -0.0110721, 1.04354, -7.42194, 0.05, 1, 7.35, 0.0110721, 0.956461, 7.37806, 0.0110721, 0.956461, -7.37806, 0.05, 1, -7.35, -0.0110721, 1.04354, -7.42194, -0.0110721, 1.04354, 7.42194, 7.35, 1, 7.35, 7.38062, 0.959897, 7.37729, 0.0110721, 0.956461, 7.37806, 0.05, 1, 7.35, -0.0110721, 1.04354, 7.42194, 7.41938, 1.0401, 7.42271, 7.35, 1, -7.35, 7.38062, 0.959897, -7.37729, 7.38062, 0.959897, 7.37729, 7.35, 1, 7.35, 7.41938, 1.0401, 7.42271, 7.41938, 1.0401, -7.42271, 7.35, 0, 7.45, 7.38493, 0.0452254, 7.38493, 0.0223594, 0.0447203, 7.4, 0.05, 0, 7.45, -0.0223594, -0.0447203, 7.4, 7.41507, -0.0452254, 7.41507, 7.35, 0, 8.09, 7.37245, 0.018778, 8.10274, 7.38493, 0.0452254, 7.38493, 7.35, 0, 7.45, 7.41507, -0.0452254, 7.41507, 7.42755, -0.018778, 8.17726, 0.05, 0, 8.09, 0.0275521, 0.018778, 8.10274, 7.37245, 0.018778, 8.10274, 7.35, 0, 8.09, 7.42755, -0.018778, 8.17726, -0.0275521, -0.018778, 8.17726, 0.05, 0, 7.45, 0.0223594, 0.0447203, 7.4, 0.0275521, 0.018778, 8.10274, 0.05, 0, 8.09, -0.0275521, -0.018778, 8.17726, -0.0223594, -0.0447203, 7.4, 7.45, 0, -7.35, 7.38493, 0.0452254, -7.38493, 7.38493, 0.0452254, 7.38493, 7.41507, -0.0452254, 7.41507, 8.35, 0, -7.35, 8.36133, 0.0160176, -7.37266, 7.38493, 0.0452254, -7.38493, 7.45, 0, -7.35, 7.41507, -0.0452254, -7.41507, 8.43867, -0.0160176, -7.42734, 8.35, 0, 7.35, 8.36133, 0.0160176, 7.37266, 8.36133, 0.0160176, -7.37266, 8.35, 0, -7.35, 8.43867, -0.0160176, -7.42734, 8.43867, -0.0160176, 7.42734, 7.45, 0, 7.35, 7.38493, 0.0452254, 7.38493, 8.36133, 0.0160176, 7.37266, 8.35, 0, 7.35, 8.43867, -0.0160176, 7.42734, 7.41507, -0.0452254, 7.41507, 0.05, 0.959808, 7.42974, 0.0110721, 0.956461, 7.37806, 7.38062, 0.959897, 7.37729, 7.35, 0.959808, 7.42974, 7.41938, 1.0401, 7.42271, -0.0110721, 1.04354, 7.42194, 0.05, 0.0401921, 8.11026, 0.0275521, 0.018778, 8.10274, 0.0110721, 0.956461, 7.37806, 0.05, 0.959808, 7.42974, -0.0110721, 1.04354, 7.42194, -0.0275521, -0.018778, 8.17726, 7.35, 0.0401921, 8.11026, 7.37245, 0.018778, 8.10274, 0.0275521, 0.018778, 8.10274, 0.05, 0.0401921, 8.11026, -0.0275521, -0.018778, 8.17726, 7.42755, -0.018778, 8.17726, 7.35, 0.959808, 7.42974, 7.38062, 0.959897, 7.37729, 7.37245, 0.018778, 8.10274, 7.35, 0.0401921, 8.11026, 7.42755, -0.018778, 8.17726, 7.41938, 1.0401, 7.42271, 7.43536, 0.964645, 7.35, 7.38062, 0.959897, 7.37729, 7.38062, 0.959897, -7.37729, 7.43536, 0.964645, -7.35, 7.41938, 1.0401, -7.42271, 7.41938, 1.0401, 7.42271, 8.36464, 0.0353553, 7.35, 8.36133, 0.0160176, 7.37266, 7.38062, 0.959897, 7.37729, 7.43536, 0.964645, 7.35, 7.41938, 1.0401, 7.42271, 8.43867, -0.0160176, 7.42734, 8.36464, 0.0353553, -7.35, 8.36133, 0.0160176, -7.37266, 8.36133, 0.0160176, 7.37266, 8.36464, 0.0353553, 7.35, 8.43867, -0.0160176, 7.42734, 8.43867, -0.0160176, -7.42734, 7.43536, 0.964645, -7.35, 7.38062, 0.959897, -7.37729, 8.36133, 0.0160176, -7.37266, 8.36464, 0.0353553, -7.35, 8.43867, -0.0160176, -7.42734, 7.41938, 1.0401, -7.42271, 7.45, 0.05, 7.4, 7.38493, 0.0452254, 7.38493, 7.38062, 0.959897, 7.37729, 7.45, 0.879289, 7.4, 7.41938, 1.0401, 7.42271, 7.41507, -0.0452254, 7.41507, 8.27929, 0.05, 7.4, 8.36133, 0.0160176, 7.37266, 7.38493, 0.0452254, 7.38493, 7.45, 0.05, 7.4, 7.41507, -0.0452254, 7.41507, 8.43867, -0.0160176, 7.42734, 7.45, 0.879289, 7.4, 7.38062, 0.959897, 7.37729, 8.36133, 0.0160176, 7.37266, 8.27929, 0.05, 7.4, 8.43867, -0.0160176, 7.42734, 7.41938, 1.0401, 7.42271, 7.35, 0, -7.35, 7.38493, 0.0452254, -7.38493, 0.0223594, 0.0447203, -7.4, 0.05, 0, -7.35, -0.0223594, -0.0447203, -7.4, 7.41507, -0.0452254, -7.41507, 7.35, 0, 7.35, 7.38493, 0.0452254, 7.38493, 7.38493, 0.0452254, -7.38493, 7.41507, -0.0452254, -7.41507, 0.05, 0, 7.35, 0.0223594, 0.0447203, 7.4, 7.38493, 0.0452254, 7.38493, 7.35, 0, 7.35, 7.41507, -0.0452254, 7.41507, -0.0223594, -0.0447203, 7.4, 0.05, 0, -7.35, 0.0223594, 0.0447203, -7.4, 0.0223594, 0.0447203, 7.4, 0.05, 0, 7.35, -0.0223594, -0.0447203, 7.4, -0.0223594, -0.0447203, -7.4, 7.45, 0.879289, -7.4, 7.38062, 0.959897, -7.37729, 7.38493, 0.0452254, -7.38493, 7.45, 0.05, -7.4, 7.41507, -0.0452254, -7.41507, 7.41938, 1.0401, -7.42271, 8.27929, 0.05, -7.4, 8.36133, 0.0160176, -7.37266, 7.38062, 0.959897, -7.37729, 7.45, 0.879289, -7.4, 7.41938, 1.0401, -7.42271, 8.43867, -0.0160176, -7.42734, 7.45, 0.05, -7.4, 7.38493, 0.0452254, -7.38493, 8.36133, 0.0160176, -7.37266, 8.27929, 0.05, -7.4, 8.43867, -0.0160176, -7.42734, 7.41507, -0.0452254, -7.41507, -0.0110721, 0.956461, -7.37806, -7.38062, 0.959897, -7.37729, -7.35, 0.959808, -7.42974, -7.41938, 1.0401, -7.42271, 0.0110721, 1.04354, -7.42194, -0.05, 0.959808, -7.42974, -7.38062, 0.959897, -7.37729, -7.37245, 0.018778, -8.10274, -7.35, 0.0401921, -8.11026, -7.42755, -0.018778, -8.17726, -7.41938, 1.0401, -7.42271, -7.35, 0.959808, -7.42974, -7.37245, 0.018778, -8.10274, -0.0275521, 0.018778, -8.10274, -0.05, 0.0401921, -8.11026, 0.0275521, -0.018778, -8.17726, -7.42755, -0.018778, -8.17726, -7.35, 0.0401921, -8.11026, -0.0275521, 0.018778, -8.10274, -0.0110721, 0.956461, -7.37806, -0.05, 0.959808, -7.42974, 0.0110721, 1.04354, -7.42194, 0.0275521, -0.018778, -8.17726, -0.05, 0.0401921, -8.11026, -0.0110721, 0.956461, 7.37806, -0.0223594, 0.0447203, 7.4, 0, 0.05, 7.45, 0.0223594, -0.0447203, 7.4, 0.0110721, 1.04354, 7.42194, 0, 0.848377, 7.45, -0.0223594, 0.0447203, 7.4, -0.0275521, 0.018778, 8.10274, 0, 0.05, 8.0408, 0.0275521, -0.018778, 8.17726, 0.0223594, -0.0447203, 7.4, 0, 0.05, 7.45, -0.0275521, 0.018778, 8.10274, -0.0110721, 0.956461, 7.37806, 0, 0.848377, 7.45, 0.0110721, 1.04354, 7.42194, 0.0275521, -0.018778, 8.17726, 0, 0.05, 8.0408, -7.38062, 0.959897, -7.37729, -7.38493, 0.0452254, -7.38493, -7.4, 0.05, -7.45, -7.41507, -0.0452254, -7.41507, -7.41938, 1.0401, -7.42271, -7.4, 0.848377, -7.45, -7.38493, 0.0452254, -7.38493, -7.37245, 0.018778, -8.10274, -7.4, 0.05, -8.0408, -7.42755, -0.018778, -8.17726, -7.41507, -0.0452254, -7.41507, -7.4, 0.05, -7.45, -7.37245, 0.018778, -8.10274, -7.38062, 0.959897, -7.37729, -7.4, 0.848377, -7.45, -7.41938, 1.0401, -7.42271, -7.42755, -0.018778, -8.17726, -7.4, 0.05, -8.0408, -7.38493, 0.0452254, 7.38493, -7.38062, 0.959897, 7.37729, -7.4, 0.848377, 7.45, -7.41938, 1.0401, 7.42271, -7.41507, -0.0452254, 7.41507, -7.4, 0.05, 7.45, -7.38062, 0.959897, 7.37729, -7.37245, 0.018778, 8.10274, -7.4, 0.05, 8.0408, -7.42755, -0.018778, 8.17726, -7.41938, 1.0401, 7.42271, -7.4, 0.848377, 7.45, -7.37245, 0.018778, 8.10274, -7.38493, 0.0452254, 7.38493, -7.4, 0.05, 7.45, -7.41507, -0.0452254, 7.41507, -7.42755, -0.018778, 8.17726, -7.4, 0.05, 8.0408, -0.0223594, 0.0447203, -7.4, -0.0110721, 0.956461, -7.37806, 0, 0.848377, -7.45, 0.0110721, 1.04354, -7.42194, 0.0223594, -0.0447203, -7.4, 0, 0.05, -7.45, -0.0110721, 0.956461, -7.37806, -0.0275521, 0.018778, -8.10274, 0, 0.05, -8.0408, 0.0275521, -0.018778, -8.17726, 0.0110721, 1.04354, -7.42194, 0, 0.848377, -7.45, -0.0275521, 0.018778, -8.10274, -0.0223594, 0.0447203, -7.4, 0, 0.05, -7.45, 0.0223594, -0.0447203, -7.4, 0.0275521, -0.018778, -8.17726, 0, 0.05, -8.0408, -7.38493, 0.0452254, -7.38493, -0.0223594, 0.0447203, -7.4, -0.05, 0, -7.45, 0.0223594, -0.0447203, -7.4, -7.41507, -0.0452254, -7.41507, -7.35, 0, -7.45, -0.0223594, 0.0447203, -7.4, -0.0275521, 0.018778, -8.10274, -0.05, 0, -8.09, 0.0275521, -0.018778, -8.17726, 0.0223594, -0.0447203, -7.4, -0.05, 0, -7.45, -0.0275521, 0.018778, -8.10274, -7.37245, 0.018778, -8.10274, -7.35, 0, -8.09, -7.42755, -0.018778, -8.17726, 0.0275521, -0.018778, -8.17726, -0.05, 0, -8.09, -7.37245, 0.018778, -8.10274, -7.38493, 0.0452254, -7.38493, -7.35, 0, -7.45, -7.41507, -0.0452254, -7.41507, -7.42755, -0.018778, -8.17726, -7.35, 0, -8.09, -7.38062, 0.959897, -7.37729, -0.0110721, 0.956461, -7.37806, -0.05, 1, -7.35, 0.0110721, 1.04354, -7.42194, -7.41938, 1.0401, -7.42271, -7.35, 1, -7.35, -0.0110721, 0.956461, -7.37806, -0.0110721, 0.956461, 7.37806, -0.05, 1, 7.35, 0.0110721, 1.04354, 7.42194, 0.0110721, 1.04354, -7.42194, -0.05, 1, -7.35, -0.0110721, 0.956461, 7.37806, -7.38062, 0.959897, 7.37729, -7.35, 1, 7.35, -7.41938, 1.0401, 7.42271, 0.0110721, 1.04354, 7.42194, -0.05, 1, 7.35, -7.38062, 0.959897, 7.37729, -7.38062, 0.959897, -7.37729, -7.35, 1, -7.35, -7.41938, 1.0401, -7.42271, -7.41938, 1.0401, 7.42271, -7.35, 1, 7.35, -0.0223594, 0.0447203, 7.4, -7.38493, 0.0452254, 7.38493, -7.35, 0, 7.45, -7.41507, -0.0452254, 7.41507, 0.0223594, -0.0447203, 7.4, -0.05, 0, 7.45, -7.38493, 0.0452254, 7.38493, -7.37245, 0.018778, 8.10274, -7.35, 0, 8.09, -7.42755, -0.018778, 8.17726, -7.41507, -0.0452254, 7.41507, -7.35, 0, 7.45, -7.37245, 0.018778, 8.10274, -0.0275521, 0.018778, 8.10274, -0.05, 0, 8.09, 0.0275521, -0.018778, 8.17726, -7.42755, -0.018778, 8.17726, -7.35, 0, 8.09, -0.0275521, 0.018778, 8.10274, -0.0223594, 0.0447203, 7.4, -0.05, 0, 7.45, 0.0223594, -0.0447203, 7.4, 0.0275521, -0.018778, 8.17726, -0.05, 0, 8.09, -7.38493, 0.0452254, 7.38493, -7.38493, 0.0452254, -7.38493, -7.45, 0, -7.35, -7.41507, -0.0452254, 7.41507, -7.38493, 0.0452254, -7.38493, -8.36133, 0.0160176, -7.37266, -8.35, 0, -7.35, -8.43867, -0.0160176, -7.42734, -7.41507, -0.0452254, -7.41507, -7.45, 0, -7.35, -8.36133, 0.0160176, -7.37266, -8.36133, 0.0160176, 7.37266, -8.35, 0, 7.35, -8.43867, -0.0160176, 7.42734, -8.43867, -0.0160176, -7.42734, -8.35, 0, -7.35, -8.36133, 0.0160176, 7.37266, -7.38493, 0.0452254, 7.38493, -7.45, 0, 7.35, -7.41507, -0.0452254, 7.41507, -8.43867, -0.0160176, 7.42734, -8.35, 0, 7.35, -7.38062, 0.959897, 7.37729, -0.0110721, 0.956461, 7.37806, -0.05, 0.959808, 7.42974, 0.0110721, 1.04354, 7.42194, -7.41938, 1.0401, 7.42271, -7.35, 0.959808, 7.42974, -0.0110721, 0.956461, 7.37806, -0.0275521, 0.018778, 8.10274, -0.05, 0.0401921, 8.11026, 0.0275521, -0.018778, 8.17726, 0.0110721, 1.04354, 7.42194, -0.05, 0.959808, 7.42974, -0.0275521, 0.018778, 8.10274, -7.37245, 0.018778, 8.10274, -7.35, 0.0401921, 8.11026, -7.42755, -0.018778, 8.17726, 0.0275521, -0.018778, 8.17726, -0.05, 0.0401921, 8.11026, -7.37245, 0.018778, 8.10274, -7.38062, 0.959897, 7.37729, -7.35, 0.959808, 7.42974, -7.41938, 1.0401, 7.42271, -7.42755, -0.018778, 8.17726, -7.35, 0.0401921, 8.11026, -7.38062, 0.959897, -7.37729, -7.38062, 0.959897, 7.37729, -7.43536, 0.964645, 7.35, -7.41938, 1.0401, 7.42271, -7.41938, 1.0401, -7.42271, -7.43536, 0.964645, -7.35, -7.38062, 0.959897, 7.37729, -8.36133, 0.0160176, 7.37266, -8.36464, 0.0353553, 7.35, -8.43867, -0.0160176, 7.42734, -7.41938, 1.0401, 7.42271, -7.43536, 0.964645, 7.35, -8.36133, 0.0160176, 7.37266, -8.36133, 0.0160176, -7.37266, -8.36464, 0.0353553, -7.35, -8.43867, -0.0160176, -7.42734, -8.43867, -0.0160176, 7.42734, -8.36464, 0.0353553, 7.35, -8.36133, 0.0160176, -7.37266, -7.38062, 0.959897, -7.37729, -7.43536, 0.964645, -7.35, -7.41938, 1.0401, -7.42271, -8.43867, -0.0160176, -7.42734, -8.36464, 0.0353553, -7.35, -7.38062, 0.959897, 7.37729, -7.38493, 0.0452254, 7.38493, -7.45, 0.05, 7.4, -7.41507, -0.0452254, 7.41507, -7.41938, 1.0401, 7.42271, -7.45, 0.879289, 7.4, -7.38493, 0.0452254, 7.38493, -8.36133, 0.0160176, 7.37266, -8.27929, 0.05, 7.4, -8.43867, -0.0160176, 7.42734, -7.41507, -0.0452254, 7.41507, -7.45, 0.05, 7.4, -8.36133, 0.0160176, 7.37266, -7.38062, 0.959897, 7.37729, -7.45, 0.879289, 7.4, -7.41938, 1.0401, 7.42271, -8.43867, -0.0160176, 7.42734, -8.27929, 0.05, 7.4, -0.0223594, 0.0447203, -7.4, -7.38493, 0.0452254, -7.38493, -7.35, 0, -7.35, -7.41507, -0.0452254, -7.41507, 0.0223594, -0.0447203, -7.4, -0.05, 0, -7.35, -7.38493, 0.0452254, -7.38493, -7.38493, 0.0452254, 7.38493, -7.35, 0, 7.35, -7.41507, -0.0452254, -7.41507, -7.38493, 0.0452254, 7.38493, -0.0223594, 0.0447203, 7.4, -0.05, 0, 7.35, 0.0223594, -0.0447203, 7.4, -7.41507, -0.0452254, 7.41507, -7.35, 0, 7.35, -0.0223594, 0.0447203, 7.4, -0.0223594, 0.0447203, -7.4, -0.05, 0, -7.35, 0.0223594, -0.0447203, -7.4, 0.0223594, -0.0447203, 7.4, -0.05, 0, 7.35, -7.38493, 0.0452254, -7.38493, -7.38062, 0.959897, -7.37729, -7.45, 0.879289, -7.4, -7.41938, 1.0401, -7.42271, -7.41507, -0.0452254, -7.41507, -7.45, 0.05, -7.4, -7.38062, 0.959897, -7.37729, -8.36133, 0.0160176, -7.37266, -8.27929, 0.05, -7.4, -8.43867, -0.0160176, -7.42734, -7.41938, 1.0401, -7.42271, -7.45, 0.879289, -7.4, -8.36133, 0.0160176, -7.37266, -7.38493, 0.0452254, -7.38493, -7.45, 0.05, -7.4, -7.41507, -0.0452254, -7.41507, -8.43867, -0.0160176, -7.42734, -8.27929, 0.05, -7.4 )

[sub_resource type="BoxShape" id=2]

[sub_resource type="BoxShape" id=3]
extents = Vector3( 1, 1, 1.97449 )

[sub_resource type="BoxShape" id=4]
extents = Vector3( 1, 0.812897, 1 )

[sub_resource type="BoxShape" id=5]
extents = Vector3( 1, 0.80512, 1 )

[sub_resource type="BoxShape" id=6]
extents = Vector3( 3.30569, 2.8598, 5.36085 )

[node name="RepairPad" index="0" instance=ExtResource( 1 )]

[node name="Base" parent="." index="0"]
material/1 = ExtResource( 2 )
script = ExtResource( 3 )
themeable_slot = 1

[node name="CollisionShape" type="CollisionShape" parent="." index="1"]
shape = SubResource( 1 )

[node name="Armature" parent="." index="2"]
bones/1/bound_children = [ NodePath("Physical Bone Arm1L") ]
bones/2/bound_children = [ NodePath("Physical Bone Arm2L") ]
bones/3/bound_children = [ NodePath("Physical Bone Arm3L") ]
bones/6/bound_children = [ NodePath("Physical Bone Arm1R") ]
bones/7/bound_children = [ NodePath("Physical Bone Arm2R") ]
bones/8/bound_children = [ NodePath("Physical Bone Arm3R") ]
bones/9/bound_children = [ NodePath("Arm3L001BoneAttachment") ]
bones/10/bound_children = [ NodePath("Arm3L002BoneAttachment") ]

[node name="AnimationPlayer" parent="Armature" index="0"]
blend_times = [ "Repair_loop", "Idle", 1.0, "Repair_loop", "Repair_loop", 1.0 ]

[node name="RepairArmL" parent="Armature" index="1"]
material/1 = ExtResource( 2 )
script = ExtResource( 3 )
themeable_slot = 1

[node name="Arm3L001BoneAttachment" parent="Armature" index="2"]
transform = Transform( -0.0999793, -1.49329e-09, -0.00203367, -0.00203367, -3.03748e-11, 0.0999793, -1.4936e-09, 0.1, 0, -3.54394, 4.13289, 3.72646e-07 )

[node name="SparkL" parent="Armature/Arm3L001BoneAttachment" index="0"]
material/0 = ExtResource( 4 )
script = ExtResource( 3 )
kind = "bright"

[node name="Arm3L002BoneAttachment" parent="Armature" index="3"]
transform = Transform( -0.0999793, 7.08649e-09, 0.00203367, 0.00203367, -1.44146e-10, 0.0999793, 7.08795e-09, 0.1, 0, -8.44798, 4.13354, 3.72646e-07 )

[node name="SparkL001" parent="Armature/Arm3L002BoneAttachment" index="0"]
material/0 = ExtResource( 4 )
script = ExtResource( 3 )
kind = "bright"

[node name="Physical Bone Arm1L" type="BoneAttachment" parent="Armature" index="4"]
editor/display_folded = true
transform = Transform( 0.707108, 0, -0.707106, -0.707106, 0, -0.707108, 0, 1, 0, 0, 2, 0 )
bone_name = "Arm1.L"

[node name="RemoteTransform" type="RemoteTransform" parent="Armature/Physical Bone Arm1L" index="0"]
transform = Transform( 1, 0, 0, 0, 1, 0, 0, 0, 1, 0, 0, -1.60034 )
remote_path = NodePath("../../../CollisionShape5")

[node name="Physical Bone Arm2L" type="BoneAttachment" parent="Armature" index="5"]
editor/display_folded = true
transform = Transform( 0.707106, 0, 0.707108, 0.707108, 0, -0.707106, 0, 1, 0, 2.14957, 4.14957, 0 )
bone_name = "Arm2.L"

[node name="RemoteTransform" type="RemoteTransform" parent="Armature/Physical Bone Arm2L" index="0"]
transform = Transform( 1, 0, 0, 0, 1, 0, 0, 0, 1, 0, 0, -2.60471 )
remote_path = NodePath("../../../CollisionShape8")

[node name="Physical Bone Arm1R" type="BoneAttachment" parent="Armature" index="6"]
editor/display_folded = true
transform = Transform( 0.707108, 0, 0.707106, 0.707106, 0, -0.707108, 0, 1, 0, -12, 2, 0 )
bone_name = "Arm1.R"

[node name="RemoteTransform" type="RemoteTransform" parent="Armature/Physical Bone Arm1R" index="0"]
transform = Transform( 1, 0, 0, 0, 1, 0, 0, 0, 1, 0, 0, -1.72395 )
remote_path = NodePath("../../../CollisionShape7")

[node name="Physical Bone Arm2R" type="BoneAttachment" parent="Armature" index="7"]
editor/display_folded = true
transform = Transform( 0.707106, 0, -0.707108, -0.707108, 0, -0.707106, 0, 1, 0, -14.1496, 4.14957, 0 )
bone_name = "Arm2.R"

[node name="RemoteTransform" type="RemoteTransform" parent="Armature/Physical Bone Arm2R" index="0"]
transform = Transform( 1, 2.22045e-16, -9.74184e-18, -4.44089e-16, 1, 8.88178e-16, -9.74184e-18, -2.22045e-16, 1, 0, 0, -1.82977 )
remote_path = NodePath("../../../CollisionShape9")

[node name="Physical Bone Arm3L" type="BoneAttachment" parent="Armature" index="8"]
editor/display_folded = true
transform = Transform( 0, 0, 1, 1, 0, 0, 0, 1, 0, -0.770419, 7.06955, 0 )
bone_name = "Arm3.L"

[node name="RemoteTransform" type="RemoteTransform" parent="Armature/Physical Bone Arm3L" index="0"]
transform = Transform( 1, 0, 1.42777e-16, 1.77636e-15, 1, 7.10543e-15, 1.42777e-16, 0, 1, 9.53674e-07, -7.10543e-15, -1.96316 )
remote_path = NodePath("../../../CollisionShape6")

[node name="Physical Bone Arm3R" type="BoneAttachment" parent="Armature" index="9"]
editor/display_folded = true
transform = Transform( 0, 0, -1, -1, 0, 0, 0, 1, 0, -11.2491, 7.05004, 0 )
bone_name = "Arm3.R"

[node name="RemoteTransform" type="RemoteTransform" parent="Armature/Physical Bone Arm3R" index="0"]
transform = Transform( 1, -1.77636e-15, -5.96046e-08, 4.44089e-16, 1, -3.55271e-15, 5.96046e-08, -3.55271e-15, 1, 0, 7.10543e-15, -2.22129 )
remote_path = NodePath("../../../CollisionShape4")

[node name="CollisionShape2" type="CollisionShape" parent="." index="3"]
transform = Transform( 1, 0, 0, 0, 1, 0, 0, 0, 1, 6, 2, 0 )
shape = SubResource( 2 )

[node name="CollisionShape3" type="CollisionShape" parent="." index="4"]
transform = Transform( 1, 0, 0, 0, 1, 0, 0, 0, 1, -6, 2, 0 )
shape = SubResource( 2 )

[node name="CollisionShape5" type="CollisionShape" parent="." index="5"]
transform = Transform( 0.707108, 0, -0.707106, -0.707106, 0, -0.707108, 0, 1, 0, 7.13161, 4.13161, 1.03563e-08 )
shape = SubResource( 3 )

[node name="CollisionShape7" type="CollisionShape" parent="." index="6"]
transform = Transform( 0.707108, 0, 0.707106, 0.707106, 0, -0.707108, 0, 1, 0, -7.21902, 4.21902, 1.03563e-08 )
shape = SubResource( 3 )

[node name="CollisionShape8" type="CollisionShape" parent="." index="7"]
transform = Transform( 0.707106, 0, 0.707108, 0.707108, 0, -0.707106, 0, 1, 0, 6.30776, 6.99138, 1.03563e-08 )
shape = SubResource( 3 )

[node name="CollisionShape9" type="CollisionShape" parent="." index="8"]
transform = Transform( 0.707106, 3.14019e-16, -0.707108, -0.707108, -3.44107e-22, -0.707106, -4.44089e-16, 1, 8.88178e-16, -6.85572, 6.44341, 1.03563e-08 )
shape = SubResource( 3 )

[node name="CollisionShape6" type="CollisionShape" parent="." index="9"]
transform = Transform( 1.42777e-16, 0, 1, 1, 0, 1.42777e-16, 1.77636e-15, 1, 7.10543e-15, 3.26642, 8.06955, 1.03563e-08 )
shape = SubResource( 4 )

[node name="CollisionShape4" type="CollisionShape" parent="." index="10"]
transform = Transform( -5.96046e-08, 3.55271e-15, -1, -1, 1.77636e-15, 5.96046e-08, 4.44089e-16, 1, -3.55271e-15, -3.02781, 8.05004, 1.03563e-08 )
shape = SubResource( 5 )

[node name="Area" type="Area" parent="." index="11"]
transform = Transform( 1, 0, 0, 0, 1, 0, 0, 0, 1, 0, 4.0121, 0 )
collision_layer = 2
collision_mask = 2
script = ExtResource( 5 )

[node name="CollisionShape" type="CollisionShape" parent="Area" index="0"]
shape = SubResource( 6 )

[node name="ToolTip3D" parent="." index="12" groups=[
"tooltip_repair",
] instance=ExtResource( 6 )]
transform = Transform( 1, 0, 0, 0, 1, 0, 0, 0, 1, 0, 3, 0 )
message = "Repair"
[connection signal="started" from="Area" to="Armature/AnimationPlayer" method="play" binds= [ "Repair_loop" ]]
[connection signal="stopped" from="Area" to="Armature/AnimationPlayer" method="stop"]
