[gd_scene load_steps=5 format=2]

[ext_resource path="res://world/DropZone.gd" type="Script" id=1]
[ext_resource path="res://units/spider/spider.tscn" type="PackedScene" id=2]

[sub_resource type="BoxShape" id=1]
resource_local_to_scene = true
extents = Vector3( 50, 5, 50 )

[sub_resource type="SpatialMaterial" id=2]
flags_unshaded = true

[node name="DropZone" type="Spatial"]
script = ExtResource( 1 )
shape = SubResource( 1 )
unit = ExtResource( 2 )

[node name="ImmediateGeometry" type="ImmediateGeometry" parent="."]
material_override = SubResource( 2 )
