[gd_resource type="Resource" load_steps=4 format=2]

[ext_resource path="res://assets/icons/blaster.svg" type="Texture" id=1]
[ext_resource path="res://items/weapons/Projectile.tscn" type="PackedScene" id=2]
[ext_resource path="res://items/weapons/weapon_data.gd" type="Script" id=3]





[resource]
script = ExtResource( 3 )
name = "AUTOFLAK"
icon = ExtResource( 1 )
projectile = ExtResource( 2 )
damage = 4.0
fire_rate = 8.0
projectile_speed = 200.0
projectile_duration = 5.0
spread = 4.0
shot_count = 18
