<?xml version="1.0" encoding="UTF-8" standalone="no"?>
<!-- Created with Inkscape (http://www.inkscape.org/) -->

<svg
   xmlns:dc="http://purl.org/dc/elements/1.1/"
   xmlns:cc="http://creativecommons.org/ns#"
   xmlns:rdf="http://www.w3.org/1999/02/22-rdf-syntax-ns#"
   xmlns:svg="http://www.w3.org/2000/svg"
   xmlns="http://www.w3.org/2000/svg"
   xmlns:sodipodi="http://sodipodi.sourceforge.net/DTD/sodipodi-0.dtd"
   xmlns:inkscape="http://www.inkscape.org/namespaces/inkscape"
   width="196"
   height="64"
   viewBox="0 0 51.858332 16.933332"
   version="1.1"
   id="svg8"
   inkscape:version="0.92.4 5da689c313, 2019-01-14"
   sodipodi:docname="mouse_move.svg">
  <defs
     id="defs2">
    <inkscape:path-effect
       effect="spiro"
       id="path-effect863"
       is_visible="true" />
    <inkscape:path-effect
       is_visible="true"
       id="path-effect954"
       effect="spiro" />
    <inkscape:path-effect
       is_visible="true"
       id="path-effect863-7"
       effect="spiro" />
    <inkscape:path-effect
       is_visible="true"
       id="path-effect863-8"
       effect="spiro" />
  </defs>
  <sodipodi:namedview
     id="base"
     pagecolor="#ffffff"
     bordercolor="#666666"
     borderopacity="1.0"
     inkscape:pageopacity="0.0"
     inkscape:pageshadow="2"
     inkscape:zoom="3.9874588"
     inkscape:cx="29.725067"
     inkscape:cy="47.289026"
     inkscape:document-units="px"
     inkscape:current-layer="layer1"
     showgrid="true"
     units="px"
     inkscape:pagecheckerboard="true"
     inkscape:window-width="1918"
     inkscape:window-height="1059"
     inkscape:window-x="0"
     inkscape:window-y="19"
     inkscape:window-maximized="0"
     showguides="false">
    <inkscape:grid
       type="xygrid"
       id="grid6171" />
    <sodipodi:guide
       position="3.1749997,15.875003"
       orientation="55.999941,0"
       id="guide944"
       inkscape:locked="false" />
    <sodipodi:guide
       position="3.1749997,1.0583521"
       orientation="0,40.000003"
       id="guide946"
       inkscape:locked="false" />
    <sodipodi:guide
       position="13.758333,1.0583521"
       orientation="-55.999941,0"
       id="guide948"
       inkscape:locked="false" />
    <sodipodi:guide
       position="9.5249995,9.5249995"
       orientation="0,-40.000003"
       id="guide950"
       inkscape:locked="false" />
    <sodipodi:guide
       position="6.3499997,15.874999"
       orientation="56.000015,0"
       id="guide952"
       inkscape:locked="false" />
    <sodipodi:guide
       position="6.3499997,10.583333"
       orientation="0,1"
       id="guide954"
       inkscape:locked="false" />
    <inkscape:grid
       empspacing="64"
       type="xygrid"
       id="grid1009" />
  </sodipodi:namedview>
  <metadata
     id="metadata5">
    <rdf:RDF>
      <cc:Work
         rdf:about="">
        <dc:format>image/svg+xml</dc:format>
        <dc:type
           rdf:resource="http://purl.org/dc/dcmitype/StillImage" />
        <dc:title></dc:title>
      </cc:Work>
    </rdf:RDF>
  </metadata>
  <g
     inkscape:label="Layer 1"
     inkscape:groupmode="layer"
     id="layer1"
     transform="translate(0,-280.06667)">
    <g
       id="g959"
       transform="translate(4.9999992e-8,3.28125e-6)">
      <path
         style="opacity:1;fill:none;fill-opacity:0.89361704;stroke:#ffffff;stroke-width:0.48306084;stroke-linecap:butt;stroke-linejoin:miter;stroke-miterlimit:4;stroke-dasharray:none;stroke-dashoffset:15.17999935;stroke-opacity:1"
         d="m 13.758333,286.41667 v 6.34999 c 0,1.75895 -1.416052,3.17501 -3.175003,3.17501 H 6.3500028 c -1.7589517,0 -3.1750031,-1.41606 -3.1750031,-3.17501 v -6.34999"
         id="path894"
         inkscape:connector-curvature="0"
         sodipodi:nodetypes="cssssc" />
      <path
         style="opacity:1;fill:#ffffff;fill-opacity:0.89361704;stroke:#ffffff;stroke-width:0.48306084;stroke-linecap:butt;stroke-linejoin:miter;stroke-miterlimit:4;stroke-dasharray:none;stroke-dashoffset:15.17999935;stroke-opacity:1"
         d="m 3.1749998,286.41667 c 0,-1.75895 1.46857,-4.86506 3.1750028,-5.29167 h 2.116664 v 5.29167 l -5.2916668,-1e-5"
         id="path892"
         inkscape:connector-curvature="0"
         sodipodi:nodetypes="ccccc" />
      <path
         style="opacity:1;fill:none;fill-opacity:0.89361704;stroke:#ffffff;stroke-width:0.48306084;stroke-linecap:butt;stroke-linejoin:miter;stroke-miterlimit:4;stroke-dasharray:none;stroke-dashoffset:15.17999935;stroke-opacity:1"
         d="m 8.466666,286.41667 h 5.291667 c 0,-1.75895 -1.416052,-5.29167 -3.175003,-5.29167 H 8.466666"
         id="rect932"
         inkscape:connector-curvature="0"
         sodipodi:nodetypes="ccsc" />
    </g>
    <g
       aria-label="L"
       style="font-style:normal;font-variant:normal;font-weight:normal;font-stretch:normal;font-size:10.58333302px;line-height:1.25;font-family:Orbitron;-inkscape-font-specification:Orbitron;letter-spacing:0px;word-spacing:0px;fill:#ffffff;fill-opacity:1;stroke:none;stroke-width:0.26458332"
       id="text898">
      <path
         d="m 4.8554821,294.77939 h 7.6199999 v -1.143 h -6.477 v -6.48758 H 4.8554821 Z"
         style="fill:#ffffff;stroke-width:0.26458332"
         id="path1091" />
    </g>
    <g
       id="g959-9"
       transform="translate(33.866665,3.28125e-6)">
      <path
         style="opacity:1;fill:none;fill-opacity:0.89361704;stroke:#ffffff;stroke-width:0.48306084;stroke-linecap:butt;stroke-linejoin:miter;stroke-miterlimit:4;stroke-dasharray:none;stroke-dashoffset:15.17999935;stroke-opacity:1"
         d="m 13.758333,286.41667 v 6.34999 c 0,1.75895 -1.416052,3.17501 -3.175003,3.17501 H 6.3500028 c -1.7589517,0 -3.1750031,-1.41606 -3.1750031,-3.17501 v -6.34999"
         id="path894-3"
         inkscape:connector-curvature="0"
         sodipodi:nodetypes="cssssc" />
      <path
         style="opacity:1;fill:none;fill-opacity:0.89361704;stroke:#ffffff;stroke-width:0.48306084;stroke-linecap:butt;stroke-linejoin:miter;stroke-miterlimit:4;stroke-dasharray:none;stroke-dashoffset:15.17999935;stroke-opacity:1"
         d="m 3.1749998,286.41667 c 0,-1.75895 1.46857,-4.86506 3.1750028,-5.29167 h 2.116664 v 5.29167 l -5.2916668,-1e-5"
         id="path892-6"
         inkscape:connector-curvature="0"
         sodipodi:nodetypes="ccccc" />
      <path
         style="opacity:1;fill:none;fill-opacity:0.89361704;stroke:#ffffff;stroke-width:0.48306084;stroke-linecap:butt;stroke-linejoin:miter;stroke-miterlimit:4;stroke-dasharray:none;stroke-dashoffset:15.17999935;stroke-opacity:1"
         d="m 8.466666,286.41667 h 5.291667 c 0,-1.75895 -1.416052,-5.29167 -3.175003,-5.29167 H 8.466666"
         id="rect932-0"
         inkscape:connector-curvature="0"
         sodipodi:nodetypes="ccsc" />
    </g>
    <g
       aria-label="M"
       style="font-style:normal;font-variant:normal;font-weight:normal;font-stretch:normal;font-size:10.58333302px;line-height:1.25;font-family:Orbitron;-inkscape-font-specification:Orbitron;letter-spacing:0px;word-spacing:0px;fill:#ffffff;fill-opacity:1;stroke:none;stroke-width:0.26458332"
       id="text898-6">
      <path
         d="m 42.311408,290.58916 -2.963333,-3.52425 h -1.354667 v 7.62 h 1.143 v -6.096 l 3.175,3.77825 3.175,-3.77825 v 6.096 h 1.143 v -7.62 h -1.36525 z"
         style="fill:#ffffff;stroke-width:0.26458332"
         id="path1107" />
    </g>
    <path
       style="fill:none;stroke:#ffffff;stroke-width:2.11666656;stroke-linecap:butt;stroke-linejoin:miter;stroke-miterlimit:4;stroke-dasharray:none;stroke-opacity:1"
       d="m 8.4666662,281.125 v 5.29167"
       id="path952"
       inkscape:connector-curvature="0"
       inkscape:path-effect="#path-effect954"
       inkscape:original-d="m 8.4666662,281.125 c 2.646e-4,1.76363 2.646e-4,3.52752 0,5.29167"
       transform="translate(33.866665)" />
    <g
       id="g959-2"
       transform="translate(16.933332,9.6683674e-6)">
      <path
         style="opacity:1;fill:none;fill-opacity:0.89361704;stroke:#ffffff;stroke-width:0.48306084;stroke-linecap:butt;stroke-linejoin:miter;stroke-miterlimit:4;stroke-dasharray:none;stroke-dashoffset:15.17999935;stroke-opacity:1"
         d="m 13.758333,286.41667 v 6.34999 c 0,1.75895 -1.416052,3.17501 -3.175003,3.17501 H 6.3500028 c -1.7589517,0 -3.1750031,-1.41606 -3.1750031,-3.17501 v -6.34999"
         id="path894-8"
         inkscape:connector-curvature="0"
         sodipodi:nodetypes="cssssc" />
      <path
         inkscape:connector-curvature="0"
         style="opacity:1;fill:#ffffff;fill-opacity:0.89361704;stroke:#ffffff;stroke-width:0.48306084;stroke-linecap:butt;stroke-linejoin:miter;stroke-miterlimit:4;stroke-dasharray:none;stroke-dashoffset:15.17999935;stroke-opacity:1"
         d="m 13.758333,286.41667 c 0,-1.75895 -1.46857,-4.86506 -3.175003,-5.29167 H 8.4666662 v 5.29167 l 5.2916668,-1e-5"
         id="path892-9" />
      <path
         style="opacity:1;fill:none;fill-opacity:0.89361704;stroke:#ffffff;stroke-width:0.48306084;stroke-linecap:butt;stroke-linejoin:miter;stroke-miterlimit:4;stroke-dasharray:none;stroke-dashoffset:15.17999935;stroke-opacity:1"
         d="M 8.4666662,286.41667 H 3.1749997 c 0,-1.75895 1.4160514,-5.29167 3.1750031,-5.29167 h 2.1166634"
         id="rect932-7"
         inkscape:connector-curvature="0"
         sodipodi:nodetypes="ccsc" />
    </g>
    <g
       aria-label="R"
       style="font-style:normal;font-variant:normal;font-weight:normal;font-stretch:normal;font-size:10.58333302px;line-height:1.25;font-family:Orbitron;-inkscape-font-specification:Orbitron;letter-spacing:0px;word-spacing:0px;fill:#ffffff;fill-opacity:1;stroke:none;stroke-width:0.26458332"
       id="text898-3">
      <path
         d="m 29.387647,288.54581 c 0,-0.75142 -0.613833,-1.37584 -1.375833,-1.37584 h -6.244167 v 7.60942 h 1.143 v -2.74108 c 0.07408,0.0106 0.148167,0.0212 0.232834,0.0212 h 2.6035 l 2.286,2.71992 h 1.354666 v -0.15875 l -2.148416,-2.56117 h 0.772583 c 0.762,0 1.375833,-0.62441 1.375833,-1.37583 z m -6.244166,2.37066 c -0.127,0 -0.232834,-0.10583 -0.232834,-0.23283 v -2.13783 c 0,-0.127 0.105834,-0.23284 0.232834,-0.23284 h 4.868333 c 0.127,0 0.232833,0.10584 0.232833,0.23284 v 2.13783 c 0,0.127 -0.105833,0.23283 -0.232833,0.23283 z"
         style="fill:#ffffff;stroke-width:0.26458332"
         id="path1110" />
    </g>
  </g>
</svg>
