[gd_resource type="Resource" load_steps=4 format=2]

[ext_resource path="res://assets/icons/ringed-beam.svg" type="Texture" id=1]
[ext_resource path="res://items/weapons/beam/projectile.tscn" type="PackedScene" id=2]
[ext_resource path="res://items/weapons/weapon_data.gd" type="Script" id=3]

[resource]
script = ExtResource( 3 )
name = "BEAM"
icon = ExtResource( 1 )
projectile = ExtResource( 2 )
damage = 8.0
fire_rate = 6.0
projectile_speed = 100.0
projectile_duration = 1.0
spread = 0.0
shot_count = 1
