[gd_scene load_steps=5 format=2]

[ext_resource path="res://items/gadgets/drop/drop.gd" type="Script" id=1]
[ext_resource path="res://assets/sounds/audacity/gadget_use.wav" type="AudioStream" id=2]
[ext_resource path="res://assets/sounds/audacity/nope.wav" type="AudioStream" id=3]
[ext_resource path="res://assets/sounds/audacity/gadget_up.wav" type="AudioStream" id=4]

[node name="Gadget" type="Spatial"]
script = ExtResource( 1 )

[node name="SpawnTimer" type="Timer" parent="."]

[node name="UseSound" type="AudioStreamPlayer" parent="."]
stream = ExtResource( 2 )
bus = "Sound"

[node name="ErrorSound" type="AudioStreamPlayer" parent="."]
stream = ExtResource( 3 )
bus = "Sound"

[node name="RegenSound" type="AudioStreamPlayer" parent="."]
stream = ExtResource( 4 )
bus = "Sound"

[node name="CooldownTimer" type="Timer" parent="."]
wait_time = 5.0
one_shot = true
