[gd_scene load_steps=6 format=2]

[ext_resource path="res://items/weapons/beam/projectile.gd" type="Script" id=1]
[ext_resource path="res://assets/materials/blue/bright.tres" type="Material" id=2]
[ext_resource path="res://common/mesh.gd" type="Script" id=3]


[sub_resource type="Animation" id=1]
resource_name = "fade"
length = 0.3
tracks/0/type = "method"
tracks/0/path = NodePath(".")
tracks/0/interp = 1
tracks/0/loop_wrap = true
tracks/0/imported = false
tracks/0/enabled = true
tracks/0/keys = {
"times": PoolRealArray( 0.3 ),
"transitions": PoolRealArray( 1 ),
"values": [ {
"args": [  ],
"method": "queue_free"
} ]
}
tracks/1/type = "value"
tracks/1/path = NodePath(".:scale")
tracks/1/interp = 1
tracks/1/loop_wrap = true
tracks/1/imported = false
tracks/1/enabled = true
tracks/1/keys = {
"times": PoolRealArray( 0.0166667, 0.3 ),
"transitions": PoolRealArray( 1, 1 ),
"update": 0,
"values": [ Vector3( 3, 3, 1 ), Vector3( 0.1, 0.1, 1 ) ]
}

[sub_resource type="CubeMesh" id=2]
size = Vector3( 0.1, 0.1, 1 )

[node name="Spatial" type="Spatial"]
transform = Transform( 0.1, 0, 0, 0, 0.1, 0, 0, 0, 1, 0, 0, 0 )
script = ExtResource( 1 )

[node name="RayCast" type="RayCast" parent="."]
enabled = true
cast_to = Vector3( 0, 0, 300 )

[node name="Fade" type="AnimationPlayer" parent="."]
autoplay = "fade"
anims/fade = SubResource( 1 )

[node name="MeshInstance" type="MeshInstance" parent="."]
mesh = SubResource( 2 )
material/0 = ExtResource( 2 )
script = ExtResource( 3 )
