[gd_scene load_steps=6 format=2]

[ext_resource path="res://buildings/spawner/spawner.escn" type="PackedScene" id=1]
[ext_resource path="res://buildings/spawner/spawner.gd" type="Script" id=2]
[ext_resource path="res://units/spider/spider.tscn" type="PackedScene" id=3]
[ext_resource path="res://assets/materials/neutral/dim.tres" type="Material" id=4]
[ext_resource path="res://common/mesh.gd" type="Script" id=5]

[node name="Spawner" index="0" instance=ExtResource( 1 )]
script = ExtResource( 2 )
UNIT_SCENE = ExtResource( 3 )

[node name="Base" parent="BasePhysics/BaseCollision" index="0"]
material/1 = ExtResource( 4 )
script = ExtResource( 5 )
themeable_slot = 1

[node name="Barrier" parent="." index="2"]
material/0 = ExtResource( 4 )
script = ExtResource( 5 )

[node name="SpawnTimer" type="Timer" parent="." index="3"]
wait_time = 5.0

[node name="TargetPoint" type="Position3D" parent="." index="4"]
transform = Transform( 1, 0, 0, 0, 1, 0, 0, 0, 1, 0, 2, 0 )
[connection signal="timeout" from="SpawnTimer" to="." method="spawn_unit"]
