[gd_scene load_steps=7 format=2]

[ext_resource path="res://common/team_color.gd" type="Script" id=1]

[sub_resource type="SpatialMaterial" id=1]
emission_enabled = true
emission = Color( 0, 0.835294, 1, 1 )
emission_energy = 16.0
emission_operator = 0
emission_on_uv2 = false

[sub_resource type="Curve" id=2]
_data = [ Vector2( 0, 0.2745 ), 0.0, 0.0, 0, 0, Vector2( 1, 0 ), 0.0, 0.0, 0, 0 ]

[sub_resource type="CurveTexture" id=3]
curve = SubResource( 2 )

[sub_resource type="ParticlesMaterial" id=4]
emission_shape = 2
emission_box_extents = Vector3( 1, 1, 1 )
spread = 180.0
flatness = 1.0
gravity = Vector3( 0, 0, 0 )
initial_velocity = 20.0
damping = 10.0
scale_curve = SubResource( 3 )

[sub_resource type="CubeMesh" id=5]

[node name="Shockwave" type="Particles"]
transform = Transform( 1, 0, 0, 0, 1, 0, 0, 0, 1, 0, 0.574097, 0 )
material_override = SubResource( 1 )
emitting = false
amount = 64
lifetime = 0.81
one_shot = true
explosiveness = 1.0
local_coords = false
process_material = SubResource( 4 )
draw_pass_1 = SubResource( 5 )
script = ExtResource( 1 )
kind = "bright"
