[gd_scene load_steps=8 format=2]

[ext_resource path="res://items/weapons/nova/projectile.gd" type="Script" id=1]
[ext_resource path="res://items/weapons/coil/lightning.tscn" type="PackedScene" id=2]
[ext_resource path="res://assets/materials/blue/bright.tres" type="Material" id=3]

[sub_resource type="SphereShape" id=1]
radius = 40.0

[sub_resource type="BoxShape" id=2]

[sub_resource type="SphereMesh" id=3]

[sub_resource type="Animation" id=4]
resource_name = "idle"
length = 0.2
loop = true
tracks/0/type = "value"
tracks/0/path = NodePath("MeshInstance:scale")
tracks/0/interp = 1
tracks/0/loop_wrap = true
tracks/0/imported = false
tracks/0/enabled = true
tracks/0/keys = {
"times": PoolRealArray( 0, 0.1, 0.2 ),
"transitions": PoolRealArray( 1, 1, 1 ),
"update": 0,
"values": [ Vector3( 1, 1, 1 ), Vector3( 2, 2, 2 ), Vector3( 1, 1, 1 ) ]
}

[node name="Projectile" type="RigidBody"]
gravity_scale = 0.0
script = ExtResource( 1 )
effect = ExtResource( 2 )

[node name="Area" type="Area" parent="."]

[node name="CollisionShape" type="CollisionShape" parent="Area"]
shape = SubResource( 1 )

[node name="CollisionShape" type="CollisionShape" parent="."]
shape = SubResource( 2 )
disabled = true

[node name="MeshInstance" type="MeshInstance" parent="."]
transform = Transform( 1.91717, 0, 0, 0, 1.91717, 0, 0, 0, 1.91717, 0, 0, 0 )
mesh = SubResource( 3 )
material/0 = ExtResource( 3 )

[node name="AnimationPlayer" type="AnimationPlayer" parent="."]
autoplay = "idle"
anims/idle = SubResource( 4 )

[node name="Timer" type="Timer" parent="."]
process_mode = 0
wait_time = 0.3
autostart = true
[connection signal="timeout" from="Timer" to="." method="pulse"]
