[gd_scene load_steps=9 format=2]

[ext_resource path="res://units/shield.gd" type="Script" id=1]
[ext_resource path="res://assets/sounds/audacity/shield_absorb.wav" type="AudioStream" id=2]
[ext_resource path="res://assets/sounds/audacity/shield_break.wav" type="AudioStream" id=3]
[ext_resource path="res://assets/sounds/audacity/shield_regen.wav" type="AudioStream" id=4]

[sub_resource type="SpatialMaterial" id=1]
params_grow = true
params_grow_amount = 10.0
emission_enabled = true
emission = Color( 0, 0.835294, 1, 1 )
emission_energy = 0.0
emission_operator = 0
emission_on_uv2 = false

[sub_resource type="Animation" id=2]
length = 0.25
tracks/0/type = "value"
tracks/0/path = NodePath(".:material_override:emission_energy")
tracks/0/interp = 1
tracks/0/loop_wrap = true
tracks/0/imported = false
tracks/0/enabled = true
tracks/0/keys = {
"times": PoolRealArray( 0, 0.25 ),
"transitions": PoolRealArray( 1, 1 ),
"update": 0,
"values": [ 3.0, 0.0 ]
}
tracks/1/type = "value"
tracks/1/path = NodePath(".:visible")
tracks/1/interp = 1
tracks/1/loop_wrap = true
tracks/1/imported = false
tracks/1/enabled = true
tracks/1/keys = {
"times": PoolRealArray( 0, 0.25 ),
"transitions": PoolRealArray( 1, 1 ),
"update": 1,
"values": [ true, false ]
}
tracks/2/type = "value"
tracks/2/path = NodePath(".:material_override:params_grow_amount")
tracks/2/interp = 1
tracks/2/loop_wrap = true
tracks/2/imported = false
tracks/2/enabled = true
tracks/2/keys = {
"times": PoolRealArray( 0 ),
"transitions": PoolRealArray( 1 ),
"update": 0,
"values": [ 0.01 ]
}
tracks/3/type = "value"
tracks/3/path = NodePath("AbsorbSound:playing")
tracks/3/interp = 1
tracks/3/loop_wrap = true
tracks/3/imported = false
tracks/3/enabled = true
tracks/3/keys = {
"times": PoolRealArray( 0 ),
"transitions": PoolRealArray( 1 ),
"update": 1,
"values": [ true ]
}

[sub_resource type="Animation" id=3]
length = 0.3
tracks/0/type = "value"
tracks/0/path = NodePath(".:material_override:emission_energy")
tracks/0/interp = 1
tracks/0/loop_wrap = true
tracks/0/imported = false
tracks/0/enabled = true
tracks/0/keys = {
"times": PoolRealArray( 0, 0.1, 0.3 ),
"transitions": PoolRealArray( 1, 1, 1 ),
"update": 0,
"values": [ 0.0, 2.2, 0.0 ]
}
tracks/1/type = "value"
tracks/1/path = NodePath(".:material_override:params_grow_amount")
tracks/1/interp = 1
tracks/1/loop_wrap = true
tracks/1/imported = false
tracks/1/enabled = true
tracks/1/keys = {
"times": PoolRealArray( 0, 0.3 ),
"transitions": PoolRealArray( 1, 1 ),
"update": 0,
"values": [ 0.0, 10.0 ]
}
tracks/2/type = "value"
tracks/2/path = NodePath(".:visible")
tracks/2/interp = 1
tracks/2/loop_wrap = true
tracks/2/imported = false
tracks/2/enabled = true
tracks/2/keys = {
"times": PoolRealArray( 0.0148817, 0.3 ),
"transitions": PoolRealArray( 1, 1 ),
"update": 1,
"values": [ true, false ]
}
tracks/3/type = "value"
tracks/3/path = NodePath("BreakSound:playing")
tracks/3/interp = 1
tracks/3/loop_wrap = true
tracks/3/imported = false
tracks/3/enabled = true
tracks/3/keys = {
"times": PoolRealArray( 0 ),
"transitions": PoolRealArray( 1 ),
"update": 1,
"values": [ true ]
}

[sub_resource type="Animation" id=4]
length = 0.3
tracks/0/type = "value"
tracks/0/path = NodePath(".:material_override:emission_energy")
tracks/0/interp = 1
tracks/0/loop_wrap = true
tracks/0/imported = false
tracks/0/enabled = true
tracks/0/keys = {
"times": PoolRealArray( 0, 0.1, 0.3 ),
"transitions": PoolRealArray( 1, 1, 1 ),
"update": 0,
"values": [ 0.0, 2.2, 0.0 ]
}
tracks/1/type = "value"
tracks/1/path = NodePath(".:material_override:params_grow_amount")
tracks/1/interp = 1
tracks/1/loop_wrap = true
tracks/1/imported = false
tracks/1/enabled = true
tracks/1/keys = {
"times": PoolRealArray( 0, 0.3 ),
"transitions": PoolRealArray( 1, 1 ),
"update": 0,
"values": [ 10.0, 0.0 ]
}
tracks/2/type = "value"
tracks/2/path = NodePath(".:visible")
tracks/2/interp = 1
tracks/2/loop_wrap = true
tracks/2/imported = false
tracks/2/enabled = true
tracks/2/keys = {
"times": PoolRealArray( 0, 0.3 ),
"transitions": PoolRealArray( 1, 1 ),
"update": 1,
"values": [ true, false ]
}
tracks/3/type = "value"
tracks/3/path = NodePath("RegenSound:playing")
tracks/3/interp = 1
tracks/3/loop_wrap = true
tracks/3/imported = false
tracks/3/enabled = true
tracks/3/keys = {
"times": PoolRealArray( 0 ),
"transitions": PoolRealArray( 1 ),
"update": 1,
"values": [ true ]
}

[node name="Shield" type="MeshInstance"]
visible = false
material_override = SubResource( 1 )
script = ExtResource( 1 )
recharge_delay = 5.0

[node name="AnimationPlayer" type="AnimationPlayer" parent="."]
anims/absorb = SubResource( 2 )
anims/break = SubResource( 3 )
anims/regen = SubResource( 4 )

[node name="AbsorbSound" type="AudioStreamPlayer3D" parent="."]
stream = ExtResource( 2 )
unit_size = 3.0
max_db = 1.0
pitch_scale = 0.93

[node name="BreakSound" type="AudioStreamPlayer3D" parent="."]
stream = ExtResource( 3 )
unit_db = 2.0
unit_size = 8.3
max_db = 1.0
pitch_scale = 0.93

[node name="RegenSound" type="AudioStreamPlayer3D" parent="."]
stream = ExtResource( 4 )
unit_db = 2.0
unit_size = 5.0
max_db = 1.0
pitch_scale = 0.93
