[gd_scene load_steps=3 format=2]

[ext_resource path="res://units/train/train_switch.gd" type="Script" id=1]

[sub_resource type="BoxShape" id=1]
extents = Vector3( 2.24492, 7.1907, 2.42746 )

[node name="TrainSwitch" type="PathFollow"]
rotation_mode = 4
script = ExtResource( 1 )

[node name="Area" type="Area" parent="."]
collision_layer = 0
collision_mask = 4

[node name="CollisionShape" type="CollisionShape" parent="Area"]
transform = Transform( 1, 0, 0, 0, 1, 0, 0, 0, 1, 0, 5, 0 )
shape = SubResource( 1 )
[connection signal="body_entered" from="Area" to="." method="_on_body_entered" flags=6]
